{
    "KPlugin": {
        "BugReportUrl": "https://bugs.kde.org/enter_bug.cgi?product=systemsettings",
        "Description": "Setting Highlighter",
        "Icon": "braindump",
        "Name": "Setting Highlighter"
    },
    "X-DocPath": "",
    "X-KDE-Keywords": "",
    "X-KDE-System-Settings-Parent-Category": "input-devices",
    "X-KDE-Weight": 220
}
